The Tangled Bank - Regridding gridded data
…
# using dplyr
system.time(
  interp_chl <- chl |> 
    reframe(Interpolate(chla ~ longitude + latitude,
                        x.out = lon.out, y.out = lat.out), .by = time) |> 
    as_tibble()
) 

   user  system elapsed 
  6.008   0.892   6.086 

interp_chl

# A tibble: 544,215 × 4
   time       longitude latitude  chla
   <date>         <dbl>    <dbl> <dbl>
 1 2021-01-01      15      -37.5    NA
 2 2021-01-01      15.2    -37.5    NA
 3 2021-01-01      15.5    -37.5    NA
 4 2021-01-01      15.8    -37.5    NA
 5 2021-01-01      16      -37.5    NA
 6 2021-01-01      16.2    -37.5    NA
 7 2021-01-01      16.5    -37.5    NA
 8 2021-01-01      16.8    -37.5    NA
 9 2021-01-01      17      -37.5    NA
10 2021-01-01      17.2    -37.5    NA
# ℹ 544,205 more rows
…
Convert the stars object back to a tibble if necessary:

chl_st_regrid_df <- as_tibble(chl_st_regrid, xy = TRUE)
chl_st_regrid_df

# A tibble: 551,880 × 4
       x     y time        chla
   <dbl> <dbl> <date>     <dbl>
 1  15.0 -20.0 2021-01-01    NA
 2  15.3 -20.0 2021-01-01    NA
 3  15.5 -20.0 2021-01-01    NA
 4  15.8 -20.0 2021-01-01    NA
 5  16.0 -20.0 2021-01-01    NA
 6  16.3 -20.0 2021-01-01    NA
 7  16.5 -20.0 2021-01-01    NA
 8  16.8 -20.0 2021-01-01    NA
 9  17.0 -20.0 2021-01-01    NA
10  17.3 -20.0 2021-01-01    NA
# ℹ 551,870 more rows
…
