21. Nonlinear Regression – The Tangled Bank
…
mf_data <- generate_data(
  n_trt = 1,
  n_rep = n_rep,
  conc_vec = conc_vec,
  Km_vec = Km_vec,
  Vmax_vec = Vmax_vec,
  Km_vec_sd = Km_vec_sd,
  Vmax_vec_sd = Vmax_vec_sd
) |>
  select(rep, S, V)

mf_data

# A tibble: 65 × 3
   rep       S     V
   <fct> <dbl> <dbl>
 1 1       0   0    
 2 2       0   0    
 3 3       0   0    
 4 4       0   0    
 5 5       0   0    
 6 1       0.1 0.511
 7 2       0.1 0.588
 8 3       0.1 0.480
 9 4       0.1 0.496
10 5       0.1 0.453
# ℹ 55 more rows
…
