The Tangled Bank - BCB744: Summative End-of-Intro-R Task
…
  inner_join(weather, by = c("origin", "month", "day")) %>% 
  pivot_longer(cols = temp:visib,
               names_to = "weather_var",
               values_to = "value") %>% 
  na.omit() %>% 
  group_by(carrier, flight, tailnum, dep_delay, weather_var) %>% 
  summarise(mean_weather_var = round(mean(value, na.rm = TRUE), ),
            sd_weather_var = round(sd(value, na.rm = TRUE), 1)) %>% 
  unite("mean_sd", mean_weather_var:sd_weather_var, sep = " ± ") %>% 
  arrange(desc(dep_delay)) %>% 
  pivot_wider(names_from = weather_var, values_from = mean_sd) %>% 
  as_tibble()
top_delay

# A tibble: 22 × 13
   carrier flight tailnum dep_delay dewp     humid   precip pressure temp  visib
   <chr>    <int> <chr>       <dbl> <chr>    <chr>   <chr>  <chr>    <chr> <chr>
 1 HA          51 N384HA       1301 35 ± 2.7 74 ± 1… 0 ± 0  1026 ± … 43 ±… 10 ±…
 2 MQ        3535 N504MQ       1137 53 ± 4.5 57 ± 1… 0 ± 0  1014 ± … 71 ±… 10 ±…
 3 MQ        3695 N517MQ       1126 24 ± 2.8 48 ± 1… 0 ± 0  1031 ± … 44 ±… 10 ±…
 4 AA         177 N338AA       1014 57 ± 2.1 73 ± 1… 0 ± 0  1018 ± 1 66 ±… 10 ±…
 5 MQ        3075 N665MQ       1005 73 ± 1.2 83 ± 1… 0 ± 0  1013 ± … 79 ±… 9 ± 1
 6 DL        2391 N959DL        960 47 ± 2.8 68 ± 1… 0 ± 0  1013 ± … 58 ±… 10 ±…
 7 DL        2119 N927DA        911 17 ± 5.2 50 ± 14 0 ± 0  1020 ± 4 35 ±… 10 ±…
 8 DL        2007 N3762Y        899 70 ± 1.1 83 ± 9  0 ± 0  1008 ± … 76 ±… 9 ± …
 9 DL        2047 N6716C        898 72 ± 1.4 84 ± 3… 0 ± 0  1012 ± … 77 ±… 9 ± …
10 AA         172 N5DMAA        896 51 ± 3.9 93 ± 6… 0 ± 0  1016 ± … 54 ±… 3 ± …
# ℹ 12 more rows
# ℹ 3 more variables: wind_dir <chr>, wind_speed <chr>, wind_gust <chr>
…
