8. ANOVA – The Tangled Bank
…
First, we read in the data, making sure to convert the column named day to a factor. Why? Because ANOVAs work with factor independent variables, while day as it is encoded by default is in fact a continuous variable.

snakes <- read_csv("../../data/snakes.csv")
snakes$day = as.factor(snakes$day)

The first thing we do is to create some summaries of the data. Refer to the summary statistics Chapter.

snakes.summary <- snakes %>% 
  group_by(day, snake) %>% 
  summarise(mean_openings = mean(openings),
            sd_openings = sd(openings)) %>% 
  ungroup()
snakes.summary

# A tibble: 24 × 4
   day   snake mean_openings sd_openings
   <fct> <chr>         <dbl>       <dbl>
 1 1     D1               85          NA
 2 1     D11              40          NA
 3 1     D12              65          NA
 4 1     D3              107          NA
 5 1     D5               61          NA
 6 1     D8               22          NA
 7 2     D1               58          NA
 8 2     D11              45          NA
 9 2     D12              27          NA
10 2     D3               51          NA
# ℹ 14 more rows
…
